<?xml version="1.0" encoding="UTF-8" standalone="no"?>
<!-- Created with Inkscape (http://www.inkscape.org/) -->

<svg
   width="2048"
   height="2048"
   viewBox="0 0 541.86665 541.86668"
   version="1.1"
   id="svg5"
   inkscape:version="1.1.2 (0a00cf5339, 2022-02-04)"
   sodipodi:docname="banners.svg"
   inkscape:export-filename="../Resources/Textures/UI/Banners.png"
   inkscape:export-xdpi="96.000008"
   inkscape:export-ydpi="96.000008"
   xmlns:inkscape="http://www.inkscape.org/namespaces/inkscape"
   xmlns:sodipodi="http://sodipodi.sourceforge.net/DTD/sodipodi-0.dtd"
   xmlns:xlink="http://www.w3.org/1999/xlink"
   xmlns="http://www.w3.org/2000/svg"
   xmlns:svg="http://www.w3.org/2000/svg">
  <sodipodi:namedview
     id="namedview7"
     pagecolor="#505050"
     bordercolor="#9c56ff"
     borderopacity="0.78039216"
     inkscape:pageshadow="0"
     inkscape:pageopacity="0"
     inkscape:pagecheckerboard="false"
     inkscape:document-units="px"
     showgrid="false"
     inkscape:snap-global="false"
     inkscape:zoom="0.41357422"
     inkscape:cx="1022.791"
     inkscape:cy="1024"
     inkscape:window-width="1920"
     inkscape:window-height="1057"
     inkscape:window-x="0"
     inkscape:window-y="0"
     inkscape:window-maximized="1"
     inkscape:current-layer="layer1"
     units="px"
     showguides="true"
     inkscape:guide-bbox="true"
     inkscape:showpageshadow="true"
     borderlayer="true">
    <sodipodi:guide
       position="270.93333,541.86667"
       orientation="-1,0"
       id="guide16686"
       inkscape:label=""
       inkscape:locked="false"
       inkscape:color="rgb(155,86,255)" />
  </sodipodi:namedview>
  <defs
     id="defs2">
    <linearGradient
       inkscape:collect="always"
       id="linearGradient16361">
      <stop
         style="stop-color:#cbd641;stop-opacity:1;"
         offset="0"
         id="stop16357" />
      <stop
         style="stop-color:#bac42f;stop-opacity:1"
         offset="0.27466345"
         id="stop16493" />
      <stop
         style="stop-color:#cdd849;stop-opacity:1"
         offset="1"
         id="stop16359" />
    </linearGradient>
    <linearGradient
       inkscape:collect="always"
       id="linearGradient12012">
      <stop
         style="stop-color:#518ee9;stop-opacity:1"
         offset="0"
         id="stop12008" />
      <stop
         style="stop-color:#2463dc;stop-opacity:1"
         offset="1"
         id="stop12010" />
    </linearGradient>
    <filter
       inkscape:collect="always"
       style="color-interpolation-filters:sRGB"
       id="filter10345"
       x="-0.0057759842"
       y="-0.0030095671"
       width="1.0115539"
       height="1.0060163">
      <feGaussianBlur
         inkscape:collect="always"
         stdDeviation="0.027655568"
         id="feGaussianBlur10347" />
    </filter>
    <filter
       inkscape:collect="always"
       style="color-interpolation-filters:sRGB"
       id="filter10470"
       x="-0.02696697"
       y="-0.013631945"
       width="1.0539339"
       height="1.027264">
      <feGaussianBlur
         inkscape:collect="always"
         stdDeviation="0.81237919"
         id="feGaussianBlur10468" />
    </filter>
    <radialGradient
       inkscape:collect="always"
       xlink:href="#linearGradient12012"
       id="radialGradient12014"
       cx="203.6266"
       cy="162.26747"
       fx="203.6266"
       fy="162.26747"
       r="47.086124"
       gradientTransform="matrix(0.95197051,0,0,1.7955259,-4.4436678,-133.0692)"
       gradientUnits="userSpaceOnUse"
       spreadMethod="reflect" />
    <linearGradient
       inkscape:collect="always"
       xlink:href="#linearGradient16361"
       id="linearGradient16363"
       x1="17.079935"
       y1="163.20766"
       x2="99.822052"
       y2="171.43027"
       gradientUnits="userSpaceOnUse"
       gradientTransform="matrix(1.0760477,0,0,1,-1.2990741,0)" />
  </defs>
  <g
     inkscape:label="Layer 1"
     inkscape:groupmode="layer"
     id="layer1">
    <g
       id="g16684"
       transform="matrix(2.6431194,0,0,2.6431194,-43.59639,-188.89473)">
      <path
         id="path1270"
         style="fill:#bdca2d;fill-opacity:1;stroke:#473f33;stroke-width:0.5;stroke-linejoin:round;stroke-miterlimit:4;stroke-dasharray:none;stroke-opacity:1;stop-color:#000000"
         d="m 20.321808,120.21319 c -1.019761,0 -3.058333,1.12577 -3.058333,1.12577 l 3.058333,-45.206014 3.058333,45.206014 c 0,0 -2.038572,-1.12577 -3.058333,-1.12577 z"
         sodipodi:nodetypes="zcccz" />
      <use
         x="0"
         y="0"
         xlink:href="#path1270"
         id="use1435"
         transform="translate(94.986581)"
         width="100%"
         height="100%"
         style="stroke-width:0.964016" />
      <path
         id="rect879"
         style="font-variation-settings:normal;opacity:1;fill:url(#linearGradient16363);fill-opacity:1;stroke:#171717;stroke-width:4;stroke-linecap:butt;stroke-linejoin:round;stroke-miterlimit:4;stroke-dasharray:none;stroke-dashoffset:0;stroke-opacity:1;stop-color:#000000;stop-opacity:1"
         d="m 67.746523,78.458508 c 16.176637,-10e-7 48.514867,-4.442258 48.514867,-4.442258 -3.85768,6.298604 -44.935422,178.38277 -48.514869,178.38277 -3.579447,0 -47.088596,-176.086975 -48.514869,-178.382761 0,0 32.338235,4.44225 48.514871,4.442249 z"
         sodipodi:nodetypes="zczcz" />
      <path
         style="color:#000000;fill:none;stroke:#354433;stroke-width:0.964016;stroke-linejoin:round;stroke-miterlimit:4;stroke-dasharray:none;stroke-opacity:0.754351;filter:url(#filter10470)"
         d="m 64.165926,78.458508 c 15.033383,-10e-7 45.086164,-4.442258 45.086164,-4.442258 -3.58504,6.298604 -41.75969,178.38277 -45.086166,178.38277 -3.326476,0 -43.760696,-176.086975 -45.086169,-178.382761 0,0 30.052789,4.44225 45.086171,4.442249 z"
         id="path7263"
         transform="matrix(1.0760477,0,0,1,-1.2990741,0)" />
      <path
         style="color:#000000;mix-blend-mode:normal;fill:none;stroke:#354433;stroke-width:0.964016;stroke-linejoin:round;stroke-miterlimit:4;stroke-dasharray:none;stroke-opacity:1;filter:url(#filter10345)"
         d="m 19.373047,72.037109 a 2.0002,2.0002 0 0 0 -2.025391,2.978516 c -0.187652,-0.325023 -0.101951,-0.214611 -0.07617,-0.136719 0.02578,0.07789 0.06956,0.2188 0.123047,0.404297 0.106972,0.370995 0.254935,0.920121 0.4375,1.619141 0.36513,1.398039 0.867973,3.403314 1.486328,5.916015 1.236711,5.025403 2.93892,12.089803 4.953125,20.503911 4.028411,16.8282 9.310166,39.05609 14.65625,61.21484 5.346084,22.15875 10.756061,44.24624 15.041016,60.8125 2.142478,8.28313 4.001759,15.18332 5.441406,20.04687 0.719824,2.43178 1.331803,4.34754 1.841797,5.72071 0.254997,0.68658 0.475271,1.22961 0.722656,1.70312 0.123693,0.23676 0.242433,0.45296 0.464844,0.72266 0.222411,0.2697 0.571775,0.85547 1.726563,0.85547 1.129718,0 1.494131,-0.5753 1.71875,-0.84571 0.224618,-0.2704 0.344396,-0.48794 0.466796,-0.72265 0.244802,-0.46943 0.459822,-1.0023 0.707032,-1.67578 0.494418,-1.34696 1.082304,-3.22213 1.773437,-5.60352 1.382268,-4.76277 3.162708,-11.5219 5.216797,-19.64844 4.108179,-16.25308 9.305455,-37.96476 14.509766,-59.87109 5.204311,-21.90633 10.414642,-44.00641 14.546874,-61.01367 2.06612,-8.503631 3.86265,-15.734482 5.25,-21.019533 0.69367,-2.642526 1.28737,-4.801102 1.75391,-6.371094 0.46653,-1.569992 0.95226,-2.74654 0.88085,-2.621094 a 2.0002,2.0002 0 0 0 -2.03125,-2.96875 c 0,0 -30.153584,4.421874 -44.792962,4.421875 -14.639378,10e-7 -44.792969,-4.421875 -44.792969,-4.421875 z m 2.457031,4.359375 c 4.578506,0.665402 28.297161,4.062501 42.335938,4.0625 13.945182,-10e-7 37.299764,-3.334341 42.130864,-4.035156 -0.009,0.03014 -0.0143,0.03381 -0.0234,0.06445 -0.48816,1.642755 -1.0854,3.828449 -1.78516,6.494141 -1.39951,5.331383 -3.20065,12.576811 -5.26953,21.091801 -4.137751,17.02997 -9.349454,39.13121 -14.552734,61.0332 -5.203281,21.902 -10.398931,43.60496 -14.496094,59.81445 -2.048582,8.10475 -3.823569,14.841 -5.179688,19.51368 -0.336561,1.15966 -0.556526,1.7588 -0.83789,2.65039 -0.302177,-0.93753 -0.540785,-1.59153 -0.90625,-2.82617 -1.413483,-4.77517 -3.269528,-11.64928 -5.40625,-19.91016 -4.273445,-16.52176 -9.679484,-38.60008 -15.023438,-60.75 -5.343954,-22.14992 -10.62651,-44.37523 -14.65625,-61.20898 -2.014869,-8.416887 -3.7158,-15.48358 -4.957031,-20.527352 -0.568229,-2.309011 -1.010133,-4.064931 -1.373047,-5.466797 z"
         id="path7265"
         transform="matrix(1.0760477,0,0,1,-1.2990741,0)" />
      <path
         id="path4919"
         style="font-variation-settings:normal;opacity:1;fill:#ffffff;fill-opacity:1;stroke:#efff03;stroke-width:0.23;stroke-linecap:butt;stroke-linejoin:round;stroke-miterlimit:4;stroke-dasharray:none;stroke-dashoffset:0;stroke-opacity:1;stop-color:#000000;stop-opacity:1"
         d="m 67.746522,131.718 c 6.014263,2e-5 18.037194,1.90508 18.037194,1.90508 -0.426864,-0.80394 -10.297716,0.358 -12.443764,8.66297 -5.064514,19.59906 0.891889,54.10076 -5.59343,54.10076 -6.485319,0 -1.897036,-36.92417 -6.723514,-55.65895 -1.594964,-6.19112 -11.181975,-7.34932 -11.313683,-7.10478 0,0 12.022936,-1.90508 18.037197,-1.90508 z"
         sodipodi:nodetypes="zcszscz" />
      <path
         id="path5392"
         style="font-variation-settings:normal;opacity:1;fill:#ffffff;fill-opacity:1;stroke:#efff03;stroke-width:0.23;stroke-linecap:butt;stroke-linejoin:round;stroke-miterlimit:4;stroke-dasharray:none;stroke-dashoffset:0;stroke-opacity:1;stop-color:#000000;stop-opacity:1"
         d="m 67.74652,127.68219 c 3.46718,3e-5 10.398315,0.95213 10.398315,0.95213 -0.246084,-0.40178 -5.936559,-2.25676 -7.17374,-7.04452 -2.919659,-11.29873 0.514168,-31.188735 -3.224575,-31.188735 -3.738742,0 -1.093629,21.286535 -3.876057,32.087015 -0.919486,3.56913 -6.446331,6.02403 -6.522259,6.14624 0,0 6.931136,-0.95213 10.398316,-0.95213 z"
         sodipodi:nodetypes="zcszscz" />
    </g>
    <g
       id="g16675"
       transform="matrix(2.6205094,0,0,2.6205094,-56.32663,-187.27887)">
      <path
         id="path12722"
         style="fill:#81a2a2;fill-opacity:1;stroke:#587777;stroke-width:0.5;stroke-linejoin:round;stroke-miterlimit:4;stroke-dasharray:none;stroke-opacity:1;stop-color:#000000"
         d="m 158.85973,260.90051 c -1.29502,0 -3.88389,0.56201 -3.88389,0.56201 l 3.88389,-22.56796 3.8839,22.56796 c 0,0 -2.58886,-0.56201 -3.8839,-0.56201 z"
         sodipodi:nodetypes="zcccz" />
      <use
         x="0"
         y="0"
         xlink:href="#path12722"
         id="use16314"
         transform="translate(35.445722)"
         width="100%"
         height="100%"
         style="stroke-width:1.05045" />
      <path
         id="path1437"
         style="font-variation-settings:normal;opacity:1;fill:url(#radialGradient12014);fill-opacity:1;stroke:#a8bdbd;stroke-width:4;stroke-linecap:butt;stroke-linejoin:round;stroke-miterlimit:4;stroke-dasharray:none;stroke-dashoffset:0;stroke-opacity:1;stop-color:#000000;stop-opacity:1"
         d="m 133.6343,74.957893 c 0,0 2.9503,62.990687 2.9503,67.482417 0,4.49173 22.29038,97.7991 22.29038,97.7991 0,0 15.27622,-74.1528 17.67999,-74.1528 2.40376,0 17.67999,74.1528 17.67999,74.1528 0,0 22.29037,-93.04829 22.29037,-97.7991 0,-4.75082 2.95031,-67.482417 2.95031,-67.482417 -11.82609,0 -14.8787,4.492248 -42.92067,4.492248 -28.04198,0 -33.2248,-4.492248 -42.92067,-4.492248 z"
         sodipodi:nodetypes="czczczczc" />
      <path
         id="path5394"
         style="font-variation-settings:normal;opacity:1;fill:#ffffff;fill-opacity:1;stroke:#03cfff;stroke-width:0.23;stroke-linecap:butt;stroke-linejoin:round;stroke-miterlimit:4;stroke-dasharray:none;stroke-dashoffset:0;stroke-opacity:1;stop-color:#000000;stop-opacity:1"
         d="m 168.47066,95.503258 c -5.6876,0 -5.51289,25.713152 -11.69873,38.759712 -1.27849,2.69649 -5.21967,4.86631 -8.02665,6.14974 -0.62842,0.0105 -1.48468,0.025 -1.59286,0.0268 0.28098,-5.6e-4 0.86232,0.008 1.49455,0.017 -1.63014,0.7402 -2.85824,1.17664 -2.90874,1.23081 0,0 5.90835,-0.63338 11.11075,-0.95997 3.79436,0.19773 7.48352,0.5162 8.63637,1.01149 7.94642,3.41387 0.39204,10.14226 11.06962,10.14226 10.67757,0 0.8709,-6.28684 9.20924,-9.85821 1.58282,-0.67794 5.71714,-1.09302 9.86339,-1.33335 5.34381,0.31201 11.7441,0.99778 11.7441,0.99778 -0.0515,-0.0553 -1.32588,-0.50602 -3.00705,-1.27476 0.74461,0.0126 1.88731,0.0317 1.88731,0.0317 -0.13373,-0.0279 -0.83548,-0.0424 -1.90055,-0.0378 -2.80594,-1.28422 -6.73652,-3.45147 -8.01293,-6.1436 -6.18585,-13.04656 -6.01114,-38.75971 -11.69872,-38.75971 -5.68761,0 3.13294,24.02607 0.73451,37.6745 -0.60461,3.44052 -3.78515,5.62046 -6.33077,6.92866 -0.8478,-0.004 -1.74076,-0.01 -2.48853,-0.01 -0.74762,0 -1.64043,0.006 -2.48807,0.01 -2.54562,-1.30813 -5.72616,-3.48812 -6.33076,-6.92866 -2.39844,-13.64843 6.42213,-37.6745 0.73452,-37.6745 z m -21.31824,44.936392 c -0.16455,3.2e-4 -0.27893,0.002 -0.29445,0.005 0,0 0.27446,-0.005 0.29445,-0.005 z" />
      <path
         id="path10980"
         style="color:#000000;fill:#81a2a2;fill-opacity:1;stroke:none;stroke-width:0.0999997;stroke-linejoin:round;stroke-miterlimit:4;stroke-dasharray:none"
         d="m 218.86221,74.067025 c -6.51621,0.0078 -12.80062,2.089809 -19.2382,3.0024 -10.5311,1.608886 -21.22704,1.631183 -31.85212,1.322373 -8.01419,-0.306259 -16.0107,-1.239148 -23.84292,-2.98349 -3.48652,-0.69784 -7.0242,-1.474422 -10.59908,-1.285503 -0.91388,0.439175 -0.48986,1.637349 -0.51787,2.433886 0.97172,21.480914 2.03313,42.958609 2.83246,64.446699 -0.0408,2.68492 0.71029,5.27983 1.19287,7.89827 2.71205,12.95279 5.7529,25.84071 8.72215,38.74284 4.11225,17.64888 8.26929,35.28761 12.47886,52.91325 0.29754,0.79284 1.6426,0.69503 1.69611,-0.21362 0.45853,-1.77598 0.7396,-3.59607 1.15927,-5.38354 4.03345,-19.0995 8.06903,-38.20424 12.77742,-57.15037 0.59512,-2.32208 1.23271,-4.63309 1.91729,-6.93039 0.63406,-0.8177 2.24994,-0.32634 2.16425,0.77905 2.73151,9.52322 4.81979,19.21317 7.03335,28.86554 2.99854,13.32911 5.78491,26.71202 8.63883,40.07423 0.31113,0.76374 1.65362,0.62354 1.67124,-0.26506 0.94337,-3.56814 1.71403,-7.16779 2.59484,-10.75379 5.79326,-24.43362 11.60946,-48.86364 17.04071,-73.38064 0.95973,-4.47275 2.03018,-8.93568 2.6647,-13.46661 0.8,-22.30757 1.94658,-44.600797 2.91547,-66.901188 0.0163,-0.59167 0.22952,-1.466621 -0.52369,-1.691823 -0.29692,-0.110637 -0.61529,-0.120013 -0.92594,-0.07251 z m -1.0654,2.115903 c 0.51602,0.368571 0.81774,0.934884 0.6535,1.573017 -0.95404,21.002376 -1.99459,42.002075 -2.77412,63.011495 0.007,3.34441 -0.97464,6.57764 -1.57599,9.84187 -2.95708,13.90439 -6.22309,27.74197 -9.42687,41.59165 -3.0877,13.21142 -6.21259,26.41401 -9.3631,39.61056 -0.47717,1.01539 -2.18802,0.5207 -2.09917,-0.58755 -3.5,-17.00054 -7.19653,-33.96242 -11.27303,-50.83002 -1.20352,-4.60107 -2.22597,-9.323 -3.95567,-13.78258 -0.25608,-0.67657 -0.74698,-1.64297 -1.66016,-1.40952 -0.91575,0.20153 -1.04892,1.31818 -1.44794,2.02204 -1.2563,3.40425 -2.07722,6.95595 -3.00792,10.44348 -2.86861,11.32613 -5.36147,22.74369 -7.86607,34.15487 -1.45056,6.64149 -2.85096,13.29372 -4.23089,19.95023 -0.42749,0.99825 -2.10553,0.61981 -2.10847,-0.4574 -1.81822,-7.92451 -3.75566,-15.83134 -5.59823,-23.75411 -4.50224,-19.14173 -8.98688,-38.28944 -13.16612,-57.50443 -0.50953,-2.5324 -1.09588,-5.06269 -1.38665,-7.62919 -0.83211,-21.77387 -1.88688,-43.538447 -2.8785,-65.305456 0.19948,-0.969629 1.36358,-1.185339 2.1862,-0.947649 5.43006,0.675478 10.72825,2.131692 16.16238,2.78764 10.7531,1.449143 21.61943,1.560756 32.45648,1.210012 7.0405,-0.269356 14.08934,-1.034904 20.97665,-2.515117 3.63354,-0.726343 7.28865,-1.428014 10.99697,-1.617008 0.1289,0.04772 0.25782,0.09544 0.38672,0.143166 z" />
      <path
         id="path10982"
         style="color:#000000;fill:#587777;fill-opacity:1;stroke:none;stroke-width:0.23;stroke-linejoin:round;stroke-miterlimit:4;stroke-dasharray:none;stroke-opacity:1"
         d="m 219.08424,72.674185 c -7.10801,-0.0222 -13.87438,2.328316 -20.9037,3.210784 -10.0279,1.388616 -20.18738,1.424398 -30.28838,1.11072 -7.82786,-0.288014 -15.63982,-1.189896 -23.29005,-2.888705 -3.7633,-0.751902 -7.55344,-1.578226 -11.42205,-1.390035 -1.373,0.27626 -2.14824,1.800972 -1.84805,3.113312 1.02189,22.391618 2.10297,44.781899 2.9568,67.180139 0.22296,2.2496 0.80984,4.44614 1.21838,6.66712 2.28221,10.91858 4.83084,21.78048 7.32255,32.65833 4.53117,19.55684 9.13847,39.09697 13.79977,58.62268 0.36212,1.80723 3.0097,2.35207 4.11307,0.90795 0.83129,-1.18287 0.71326,-2.72008 1.13214,-4.05792 4.22501,-20.01839 8.42272,-40.04875 13.37076,-59.90313 0.27546,-1.06524 0.56472,-2.12682 0.86808,-3.18448 0.64189,-0.0809 1.19866,-0.0511 1.1715,0.73882 2.38563,8.83542 4.33938,17.77946 6.36837,26.702 2.90063,12.97218 5.62626,25.99063 8.39169,38.99346 0.53786,1.73751 3.20294,2.11188 4.17392,0.55426 0.6736,-1.18583 0.69937,-2.60631 1.10654,-3.88949 6.40689,-27.01162 12.86406,-54.01331 18.87848,-81.11548 0.97172,-4.5581 2.06746,-9.07542 2.70523,-13.68026 0.83504,-22.7248 1.98865,-45.436112 2.98066,-68.154221 -0.0589,-1.372121 -1.48249,-2.406176 -2.80571,-2.195854 z m 0.45739,0.933378 c 0.99401,0.02705 1.63996,1.11075 1.38012,2.027196 -0.9905,21.793087 -2.07414,43.582771 -2.88056,65.383591 0.0246,1.99713 -0.3266,3.96178 -0.75212,5.90459 -2.03701,10.19722 -4.42551,20.32005 -6.73165,30.45943 -4.89285,21.1936 -9.88224,42.36698 -14.96786,63.51397 -0.43004,1.31642 -2.66159,1.00986 -2.73454,-0.36851 -4.26745,-20.40999 -8.56403,-40.8073 -13.52638,-61.0598 -0.72383,-2.84656 -1.43298,-5.7057 -2.35979,-8.49175 -0.36371,-0.41579 -0.95489,0.0303 -0.9299,0.50288 -2.67221,9.18016 -4.69121,18.53015 -6.84005,27.85761 -3.126,13.8293 -6.0187,27.72005 -8.97879,41.59075 -0.47922,1.31187 -2.68971,0.94041 -2.73946,-0.44626 -6.65451,-28.12734 -13.37794,-56.242 -19.64105,-84.46025 -0.94386,-4.35651 -1.96438,-8.70714 -2.61569,-13.11731 -0.81535,-22.66957 -1.98315,-45.324443 -2.96049,-67.987178 0.0494,-0.994216 1.14153,-1.466292 2.01951,-1.284221 6.12592,0.124897 12.03513,2.085901 18.04022,2.886339 11.37047,1.728809 22.95647,1.79617 34.39596,1.374649 7.13907,-0.337769 14.20542,-1.227733 21.15341,-2.833314 3.83982,-0.814353 7.73304,-1.46672 11.66911,-1.452412 z m -2.35203,3.045561 c -5.52071,0.38312 -10.94699,1.782651 -16.42541,2.70152 -11.25391,1.752963 -22.69279,1.803344 -34.05087,1.41333 -8.05095,-0.305219 -16.07619,-1.28487 -23.95377,-2.980685 -2.39692,-0.447994 -4.81141,-1.011411 -7.25163,-1.052355 -0.60081,0.498312 -0.14137,1.405728 -0.22654,2.073723 0.93541,20.705357 1.95849,41.407633 2.72866,62.119823 -0.0216,1.82225 0.3147,3.60545 0.71222,5.43055 2.2725,11.25323 4.91421,22.41836 7.4742,33.61191 3.99365,17.3076 8.0638,34.59833 12.19222,51.87382 0.25956,0.49225 1.02991,0.20147 0.9477,-0.34266 3.86691,-18.38684 7.7683,-36.7718 12.33341,-54.99993 0.92822,-3.46538 1.77582,-6.97547 3.13109,-10.30434 0.34996,-0.87369 1.19723,-1.72617 2.21578,-1.40151 1.15508,0.26738 1.36622,1.62102 1.83567,2.52454 1.40089,3.93715 2.33745,8.02102 3.3946,12.05987 2.95041,11.91474 5.57957,23.90817 8.17983,35.90421 1.20073,5.53143 2.33794,11.07952 3.53439,16.61002 0.34966,0.50659 1.03897,0.0344 0.96565,-0.4969 6.12191,-25.75886 12.27038,-51.52567 17.96344,-77.37525 0.80414,-3.76459 1.68469,-7.47773 2.20609,-11.29036 0.83833,-21.89573 1.90882,-43.782193 2.88719,-65.672135 -0.0302,-0.368424 -0.50602,-0.430163 -0.79392,-0.407191 z m -0.20081,1.593436 c -0.95726,20.982777 -1.98845,41.96295 -2.77078,62.95313 -0.11486,0.59503 0.0571,0.76565 0.6084,0.8921 0.10645,0.50357 0.13072,1.10124 -0.51896,1.14628 -0.48992,0.0366 -0.21399,0.92928 -0.42251,1.3104 -2.17298,10.87647 -4.67573,21.68533 -7.15642,32.49595 -3.86302,16.77042 -7.81628,33.51969 -11.80797,50.25989 -0.49694,0.39686 -1.17162,0.0844 -1.10085,-0.57203 -3.34571,-15.99562 -6.82076,-31.99781 -10.71234,-47.83828 -1.13969,-4.37656 -2.12662,-8.8259 -3.82671,-13.03114 -0.43405,-1.03643 -1.30413,-2.10101 -2.51089,-2.0684 -1.17108,-0.11694 -2.27966,0.6536 -2.67542,1.74518 -1.26929,2.60515 -1.88647,5.4629 -2.67524,8.2362 -3.14225,11.85782 -5.74477,23.87704 -8.40072,35.85937 -1.28237,5.8738 -2.53283,11.75437 -3.75396,17.6412 -0.48503,0.41277 -1.16902,0.11709 -1.11535,-0.5409 -6.01898,-25.41154 -12.06261,-50.81982 -17.63876,-76.33276 -0.53917,-2.65029 -1.15442,-5.29813 -1.47628,-7.98302 -0.81524,-21.37704 -1.85155,-42.745061 -2.82142,-64.115531 0.35952,-0.557854 0.892,-0.565126 1.47815,-0.401614 5.22337,0.775479 10.35399,2.093236 15.60491,2.70024 10.95749,1.413618 22.06939,1.511648 33.12456,1.108637 6.97996,-0.302095 13.9469,-1.12531 20.7914,-2.592853 3.0537,-0.601494 6.12183,-1.17376 9.23052,-1.398237 0.18222,0.175396 0.36442,0.350792 0.54664,0.526188 z" />
    </g>
  </g>
</svg>
